<?xml version="1.0" standalone="no"?>
<!DOCTYPE svg PUBLIC "-//W3C//DTD SVG 20010904//EN"
 "http://www.w3.org/TR/2001/REC-SVG-20010904/DTD/svg10.dtd">
<svg version="1.0" xmlns="http://www.w3.org/2000/svg"
 width="181.000000pt" height="181.000000pt" viewBox="0 0 181.000000 181.000000"
 preserveAspectRatio="xMidYMid meet">
<metadata>
Created by potrace 1.12, written by Peter Selinger 2001-2015
</metadata>
<g transform="translate(0.000000,181.000000) scale(0.100000,-0.100000)"
fill="#000000" stroke="none">
<path d="M515 1739 c-113 -26 -235 -80 -289 -128 -51 -45 -141 -170 -167 -234
-49 -116 -51 -127 -50 -246 1 -139 13 -204 55 -296 53 -113 119 -189 235 -268
l56 -39 6 44 c4 24 8 227 10 453 l3 410 37 37 c36 34 42 36 121 42 107 8 287
14 462 15 124 1 137 3 126 17 -27 31 -130 104 -187 130 -32 15 -65 32 -73 39
-36 30 -254 45 -345 24z"/>
<path d="M603 1380 c-65 -7 -80 -21 -93 -89 -9 -47 -16 -1079 -8 -1086 2 -1
39 1 83 4 l79 6 3 235 c4 337 22 752 34 766 6 8 86 12 262 14 138 1 297 5 352
9 l100 6 7 60 c4 32 4 63 -1 68 -9 9 -736 16 -818 7z"/>
<path d="M1518 1095 c-3 -3 -158 -7 -344 -9 -187 -2 -346 -6 -355 -10 -14 -6
-17 -65 -22 -523 -4 -284 -6 -518 -4 -520 8 -8 737 -5 812 3 l80 9 1 175 c0
96 2 330 4 520 l4 345 -30 6 c-37 8 -139 11 -146 4z m-200 -171 c32 -9 30 -58
-3 -80 -22 -14 -45 -15 -175 -9 -131 6 -152 10 -160 25 -13 25 -3 49 24 55 11
2 30 6 41 8 32 7 248 7 273 1z m248 -185 c3 -6 -5 -26 -18 -46 l-24 -36 -259
-1 c-149 -1 -265 2 -272 7 -16 12 -17 53 -1 63 28 17 88 22 320 22 152 0 250
-3 254 -9z m-377 -168 c20 -15 22 -21 12 -39 -13 -25 -25 -29 -124 -37 -85 -7
-107 1 -107 40 0 30 17 43 65 48 94 9 130 6 154 -12z m347 -195 c17 -24 17
-28 1 -50 -21 -28 -81 -36 -296 -36 -206 0 -278 9 -288 38 -3 7 3 22 13 32 24
24 188 39 407 36 135 -1 150 -3 163 -20z"/>
</g>
</svg>
